<svg width="48" height="48" viewBox="0 0 48 48" fill="none" xmlns="http://www.w3.org/2000/svg">
<path fill-rule="evenodd" clip-rule="evenodd" d="M24 48C37.2548 48 48 37.2548 48 24C48 10.7452 37.2548 0 24 0C10.7452 0 0 10.7452 0 24C0 37.2548 10.7452 48 24 48Z" fill="#E4572E"/>
<path fill-rule="evenodd" clip-rule="evenodd" d="M24.0007 45.1762C35.6961 45.1762 45.1772 35.6952 45.1772 23.9997C45.1772 12.3043 35.6961 2.82324 24.0007 2.82324C12.3052 2.82324 2.82422 12.3043 2.82422 23.9997C2.82422 35.6952 12.3052 45.1762 24.0007 45.1762Z" fill="white"/>
<mask id="mask0" mask-type="alpha" maskUnits="userSpaceOnUse" x="2" y="2" width="44" height="44">
<path d="M42.6772 23.9997C42.6772 34.3144 34.3154 42.6762 24.0007 42.6762C13.686 42.6762 5.32422 34.3144 5.32422 23.9997C5.32422 13.685 13.686 5.32324 24.0007 5.32324C34.3154 5.32324 42.6772 13.685 42.6772 23.9997Z" fill="white" stroke="white" stroke-width="5"/>
</mask>
<g mask="url(#mask0)">
<path fill-rule="evenodd" clip-rule="evenodd" d="M42.6413 38.319C41.8235 37.6573 40.8528 37.2114 39.818 37.0218L28.3991 34.9302H20.4226L8.72496 37.058C7.80909 37.2246 6.93805 37.5805 6.16753 38.1028C4.70047 39.0974 3.68789 40.6333 3.35197 42.3736L0.259506 58.3942C0.259506 58.3942 2.42024 57.6674 5.30551 57.6674C8.19079 57.6674 10.6157 58.3942 10.6157 58.3942L10.0807 63.7903C9.98612 64.7448 9.75534 65.6781 9.4231 66.5779C8.70848 68.5134 7.50304 72.0385 7.50304 73.7949C7.50304 76.2913 8.06717 77.2705 8.06717 77.2705C8.06717 77.2705 22.7856 78.8701 28.3991 78.8701C34.0126 78.8701 40.4983 77.3903 40.4983 77.3903C40.4983 77.3903 40.9828 76.1967 40.6992 73.4889C40.5657 72.2153 39.9461 70.5933 39.3272 69.2324C38.4987 67.4104 38.0001 65.433 38.1232 63.4353L38.4341 58.3942C38.4341 58.3942 38.9344 57.5756 42.6725 57.4989C46.4107 57.4223 48.1074 58.3942 48.1074 58.3942L44.8556 41.9869C44.5694 40.5428 43.7858 39.2449 42.6413 38.319Z" fill="#3A94FF"/>
<mask id="mask1" mask-type="alpha" maskUnits="userSpaceOnUse" x="0" y="34" width="49" height="45">
<path fill-rule="evenodd" clip-rule="evenodd" d="M42.6413 38.319C41.8235 37.6573 40.8528 37.2114 39.818 37.0218L28.3991 34.9302H20.4226L8.72496 37.058C7.80909 37.2246 6.93805 37.5805 6.16753 38.1028C4.70047 39.0974 3.68789 40.6333 3.35197 42.3736L0.259506 58.3942C0.259506 58.3942 2.42024 57.6674 5.30551 57.6674C8.19079 57.6674 10.6157 58.3942 10.6157 58.3942L10.0807 63.7903C9.98612 64.7448 9.75534 65.6781 9.4231 66.5779C8.70848 68.5134 7.50304 72.0385 7.50304 73.7949C7.50304 76.2913 8.06717 77.2705 8.06717 77.2705C8.06717 77.2705 22.7856 78.8701 28.3991 78.8701C34.0126 78.8701 40.4983 77.3903 40.4983 77.3903C40.4983 77.3903 40.9828 76.1967 40.6992 73.4889C40.5657 72.2153 39.9461 70.5933 39.3272 69.2324C38.4987 67.4104 38.0001 65.433 38.1232 63.4353L38.4341 58.3942C38.4341 58.3942 38.9344 57.5756 42.6725 57.4989C46.4107 57.4223 48.1074 58.3942 48.1074 58.3942L44.8556 41.9869C44.5694 40.5428 43.7858 39.2449 42.6413 38.319Z" fill="white"/>
</mask>
<g mask="url(#mask1)">
</g>
<path fill-rule="evenodd" clip-rule="evenodd" d="M16.5252 19.2489C16.5252 19.2489 15.5297 15.6696 17.4526 13.168C19.3756 10.6665 24.7521 10.0917 28.035 13.168C31.3179 16.2444 28.5087 25.0321 26.5264 28.7321C24.5442 32.4321 16.5252 19.2489 16.5252 19.2489Z" fill="#69442F"/>
<path fill-rule="evenodd" clip-rule="evenodd" d="M17.9333 16.4741C17.3693 16.3171 16.7598 16.7316 16.7598 17.317V27.2192C16.7598 29.1999 18.3655 30.8056 20.3462 30.8056L19.6321 36.8404C21.004 39.3926 24.4193 39.9569 26.5392 37.9815L27.7638 36.8404L28.5012 25.1C28.5012 25.1 30.0614 25.2676 30.5268 22.9584C30.9922 20.6493 28.5435 20.9667 28.0035 21.8658C28.0035 21.8658 27.3569 20.865 27.1619 19.6746C27.0575 19.0371 27.065 18.2785 27.0944 17.7114C27.1217 17.1837 26.9119 16.6619 26.4026 16.5213C25.7622 16.3445 24.677 16.2471 23.0001 16.6723C21.0823 17.1586 19.1313 16.8076 17.9333 16.4741Z" fill="#FF9679"/>
<mask id="mask2" mask-type="alpha" maskUnits="userSpaceOnUse" x="16" y="16" width="15" height="24">
<path fill-rule="evenodd" clip-rule="evenodd" d="M17.9333 16.4741C17.3693 16.3171 16.7598 16.7316 16.7598 17.317V27.2192C16.7598 29.1999 18.3655 30.8056 20.3462 30.8056L19.6321 36.8404C21.004 39.3926 24.4193 39.9569 26.5392 37.9815L27.7638 36.8404L28.5012 25.1C28.5012 25.1 30.0614 25.2676 30.5268 22.9584C30.9922 20.6493 28.5435 20.9667 28.0035 21.8658C28.0035 21.8658 27.3569 20.865 27.1619 19.6746C27.0575 19.0371 27.065 18.2785 27.0944 17.7114C27.1217 17.1837 26.9119 16.6619 26.4026 16.5213C25.7622 16.3445 24.677 16.2471 23.0001 16.6723C21.0823 17.1586 19.1313 16.8076 17.9333 16.4741Z" fill="white"/>
</mask>
<g mask="url(#mask2)">
<path fill-rule="evenodd" clip-rule="evenodd" d="M19.9594 30.7682C19.9594 30.7682 24.4027 28.7345 27.6802 25.8071C27.6802 25.8071 27.1681 30.113 25.0409 32.4921C22.9136 34.8712 19.5215 35.8816 19.5215 35.8816L19.9594 30.7682Z" fill="#2A1B12"/>
</g>
<path fill-rule="evenodd" clip-rule="evenodd" d="M30.2289 22.0158C30.2926 22.1102 30.2676 22.2383 30.1732 22.302L28.9067 23.1556C28.9827 23.1699 29.0596 23.1915 29.1323 23.2238C29.2787 23.2887 29.4171 23.4012 29.4851 23.5851C29.5247 23.6919 29.4701 23.8105 29.3633 23.85C29.2566 23.8896 29.1379 23.835 29.0984 23.7282C29.0785 23.6744 29.0378 23.633 28.9651 23.6007C28.8884 23.5667 28.7875 23.5488 28.6764 23.544C28.5674 23.5393 28.4609 23.5476 28.3803 23.5575C28.3405 23.5625 28.3079 23.5677 28.2857 23.5715C28.2747 23.5735 28.2662 23.5751 28.2608 23.5761L28.2551 23.5773L28.2543 23.5775L28.2542 23.5775C28.2542 23.5775 28.2542 23.5775 28.2541 23.5771L28.0957 23.2049L29.9427 21.96C30.0371 21.8964 30.1653 21.9213 30.2289 22.0158ZM28.254 23.5775C28.254 23.5775 28.254 23.5775 28.2541 23.5775L28.254 23.5775Z" fill="#6A5021"/>
<path fill-rule="evenodd" clip-rule="evenodd" d="M20.1238 20.8202C20.2337 20.8501 20.2986 20.9634 20.2688 21.0733L19.1929 25.0342C19.1407 25.2261 19.2852 25.4151 19.4841 25.4151H20.958C21.0719 25.4151 21.1642 25.5074 21.1642 25.6213C21.1642 25.7352 21.0719 25.8275 20.958 25.8275H19.4841C19.0135 25.8275 18.6715 25.3802 18.7949 24.9261L19.8708 20.9652C19.9007 20.8553 20.014 20.7904 20.1238 20.8202Z" fill="#6A5021"/>
<path fill-rule="evenodd" clip-rule="evenodd" d="M16.6689 20.1718L16.4962 19.9713C16.3855 20.0667 16.3731 20.2338 16.4684 20.3445C16.5635 20.4549 16.7298 20.4676 16.8405 20.3732L16.8438 20.3705C16.8475 20.3675 16.8541 20.3623 16.8636 20.3553C16.8826 20.3412 16.9129 20.3199 16.954 20.2944C17.0364 20.2433 17.1617 20.1761 17.326 20.1174C17.6528 20.0006 18.1385 19.9153 18.7597 20.0621C18.9019 20.0958 19.0445 20.0077 19.0781 19.8655C19.1117 19.7233 19.0236 19.5807 18.8814 19.5471C18.1486 19.3739 17.5584 19.4723 17.1479 19.6191C16.9436 19.6921 16.7848 19.7767 16.6754 19.8445C16.6206 19.8784 16.578 19.9082 16.548 19.9305C16.5331 19.9416 16.5212 19.9509 16.5126 19.9578C16.5082 19.9613 16.5047 19.9642 16.502 19.9665L16.4985 19.9694L16.4972 19.9705L16.4967 19.9709L16.4964 19.9712C16.4963 19.9712 16.4962 19.9713 16.6689 20.1718Z" fill="#412A1D"/>
<path fill-rule="evenodd" clip-rule="evenodd" d="M21.5401 19.8943L21.4642 19.6409C21.3242 19.6828 21.2447 19.8302 21.2866 19.9702C21.3284 20.1101 21.4758 20.1897 21.6157 20.1479L21.6155 20.148L21.6155 20.148L21.6152 20.148L21.6149 20.1481L21.6149 20.1481C21.6149 20.1481 21.6151 20.1481 21.6155 20.148L21.6213 20.1464C21.6271 20.1448 21.6369 20.1423 21.6505 20.1391C21.6775 20.1328 21.7194 20.1239 21.774 20.1151C21.8833 20.0974 22.0428 20.0802 22.237 20.0839C22.6247 20.0912 23.1476 20.1815 23.6875 20.5154C23.8118 20.5923 23.9749 20.5539 24.0517 20.4296C24.1286 20.3053 24.0902 20.1422 23.9659 20.0654C23.3287 19.6712 22.7082 19.5635 22.2469 19.5548C22.0165 19.5504 21.8251 19.5708 21.6897 19.5926C21.6218 19.6036 21.5678 19.6149 21.5296 19.6239C21.5105 19.6284 21.4953 19.6323 21.4843 19.6352C21.4788 19.6367 21.4744 19.6379 21.471 19.6389L21.4668 19.6401L21.4653 19.6405L21.4647 19.6407L21.4644 19.6408C21.4643 19.6408 21.4642 19.6409 21.5401 19.8943Z" fill="#412A1D"/>
<path fill-rule="evenodd" clip-rule="evenodd" d="M22.2926 22.4075C22.4898 22.4075 22.6497 22.2476 22.6497 22.0504C22.6497 21.8532 22.4898 21.6934 22.2926 21.6934C22.0954 21.6934 21.9355 21.8532 21.9355 22.0504C21.9355 22.2476 22.0954 22.4075 22.2926 22.4075Z" fill="black"/>
<path fill-rule="evenodd" clip-rule="evenodd" d="M18.1266 22.4075C18.3238 22.4075 18.4837 22.2476 18.4837 22.0504C18.4837 21.8532 18.3238 21.6934 18.1266 21.6934C17.9294 21.6934 17.7695 21.8532 17.7695 22.0504C17.7695 22.2476 17.9294 22.4075 18.1266 22.4075Z" fill="black"/>
<path fill-rule="evenodd" clip-rule="evenodd" d="M16.7609 24.8554L17.0054 25.1886C17.2925 25.58 17.7489 25.8112 18.2343 25.8112H23.995C24.734 25.8112 25.432 25.4623 25.7805 24.8107C26.4038 23.6452 27.2623 21.5645 27.1288 19.1226L28.3919 20.1717C28.3919 20.1717 28.1039 26.3422 26.4529 29.5335C24.802 32.7249 19.8907 33.4811 17.5263 31.0823C15.162 28.6835 16.7609 24.8554 16.7609 24.8554Z" fill="#69442F"/>
<path fill-rule="evenodd" clip-rule="evenodd" d="M18.8047 27.3191C18.8047 27.3191 20.9094 27.3792 22.2826 26.856C22.2826 26.856 21.8336 28.4726 20.5386 28.5205C19.2436 28.5684 18.8047 27.3191 18.8047 27.3191Z" fill="white"/>
<path fill-rule="evenodd" clip-rule="evenodd" d="M17.1602 35.447L17.48 35.1958C18.1721 34.6526 19.036 34.3755 19.9149 34.4148C19.7478 36.8435 21.598 38.9403 24.0286 39.0769L25.6016 39.1652L19.8354 42.1031L17.1602 35.447Z" fill="#3A94FF"/>
<path fill-rule="evenodd" clip-rule="evenodd" d="M29.4922 35.1422L29.3333 34.9876C28.9518 34.6161 28.4402 34.4082 27.9077 34.4082L27.7366 35.7992C27.5485 37.3276 26.435 38.5805 24.9392 38.9467L28.6449 40.7575L28.838 37.5975L29.4922 35.1422Z" fill="#3A94FF"/>
<path fill-rule="evenodd" clip-rule="evenodd" d="M27.4528 37.4253L30.0137 41.1752L25.7999 39.1957C25.7999 39.1957 26.4148 38.9019 26.8721 38.4046C27.3294 37.9073 27.4528 37.4253 27.4528 37.4253Z" fill="#2277F3"/>
<path fill-rule="evenodd" clip-rule="evenodd" d="M20.9345 38.3779L17.907 41.2484L23.0723 39.3432C23.0723 39.3432 22.2419 39.1106 21.877 38.9459C21.512 38.7811 20.9345 38.3779 20.9345 38.3779Z" fill="#2277F3"/>
<path fill-rule="evenodd" clip-rule="evenodd" d="M25.1788 38.8085L25.0793 46.8085C25.0767 47.0214 24.9188 47.2005 24.7079 47.2298C24.4637 47.2638 24.2408 47.0862 24.2194 46.8406L23.5182 38.8085L25.1788 38.8085Z" fill="#1873F7"/>
<mask id="mask3" mask-type="alpha" maskUnits="userSpaceOnUse" x="23" y="38" width="3" height="10">
<path fill-rule="evenodd" clip-rule="evenodd" d="M25.1788 38.8085L25.0793 46.8085C25.0767 47.0214 24.9188 47.2005 24.7079 47.2298C24.4637 47.2638 24.2408 47.0862 24.2194 46.8406L23.5182 38.8085L25.1788 38.8085Z" fill="white"/>
</mask>
<g mask="url(#mask3)">
<path fill-rule="evenodd" clip-rule="evenodd" d="M25.2129 38.4242L23.3343 38.4242L23.419 39.9691C23.4454 40.4501 23.8302 40.8339 24.3113 40.8592C24.8739 40.8886 25.3367 40.4214 25.3018 39.8591L25.2129 38.4242Z" fill="#FF9675"/>
</g>
<path fill-rule="evenodd" clip-rule="evenodd" d="M25.9653 42.5665C25.7024 42.5665 25.4892 42.3533 25.4892 42.0904C25.4892 41.8274 25.7024 41.6143 25.9653 41.6143C26.2282 41.6143 26.4414 41.8274 26.4414 42.0904C26.4414 42.3533 26.2282 42.5665 25.9653 42.5665Z" fill="white"/>
<path fill-rule="evenodd" clip-rule="evenodd" d="M25.9653 44.8282C25.7024 44.8282 25.4892 44.615 25.4892 44.3521C25.4892 44.0891 25.7024 43.876 25.9653 43.876C26.2282 43.876 26.4414 44.0891 26.4414 44.3521C26.4414 44.615 26.2282 44.8282 25.9653 44.8282Z" fill="white"/>
</g>
</svg>
